%YAML 1.1
%TAG !u! tag:unity3d.com,2011:
--- !u!1 &1988486487321112
GameObject:
  m_ObjectHideFlags: 0
  m_CorrespondingSourceObject: {fileID: 0}
  m_PrefabInstance: {fileID: 0}
  m_PrefabAsset: {fileID: 0}
  serializedVersion: 6
  m_Component:
  - component: {fileID: 4327056396034110}
  - component: {fileID: 212722105624297970}
  - component: {fileID: 114706499675454988}
  - component: {fileID: 61899113929982292}
  - component: {fileID: 114219179259142264}
  m_Layer: 0
  m_Name: RetroPortalBlue
  m_TagString: Untagged
  m_Icon: {fileID: 0}
  m_NavMeshLayer: 0
  m_StaticEditorFlags: 0
  m_IsActive: 1
--- !u!4 &4327056396034110
Transform:
  m_ObjectHideFlags: 0
  m_CorrespondingSourceObject: {fileID: 0}
  m_PrefabInstance: {fileID: 0}
  m_PrefabAsset: {fileID: 0}
  m_GameObject: {fileID: 1988486487321112}
  m_LocalRotation: {x: -0, y: -0, z: -0, w: 1}
  m_LocalPosition: {x: -39.5, y: 23, z: 0}
  m_LocalScale: {x: 1, y: 1, z: 1}
  m_Children:
  - {fileID: 7384085189092390695}
  - {fileID: 5398357758365771723}
  m_Father: {fileID: 0}
  m_RootOrder: 0
  m_LocalEulerAnglesHint: {x: 0, y: 0, z: 0}
--- !u!212 &212722105624297970
SpriteRenderer:
  m_ObjectHideFlags: 0
  m_CorrespondingSourceObject: {fileID: 0}
  m_PrefabInstance: {fileID: 0}
  m_PrefabAsset: {fileID: 0}
  m_GameObject: {fileID: 1988486487321112}
  m_Enabled: 1
  m_CastShadows: 0
  m_ReceiveShadows: 0
  m_DynamicOccludee: 1
  m_MotionVectors: 1
  m_LightProbeUsage: 1
  m_ReflectionProbeUsage: 1
  m_RenderingLayerMask: 1
  m_RendererPriority: 0
  m_Materials:
  - {fileID: 10754, guid: 0000000000000000f000000000000000, type: 0}
  m_StaticBatchInfo:
    firstSubMesh: 0
    subMeshCount: 0
  m_StaticBatchRoot: {fileID: 0}
  m_ProbeAnchor: {fileID: 0}
  m_LightProbeVolumeOverride: {fileID: 0}
  m_ScaleInLightmap: 1
  m_ReceiveGI: 1
  m_PreserveUVs: 0
  m_IgnoreNormalsForChartDetection: 0
  m_ImportantGI: 0
  m_StitchLightmapSeams: 0
  m_SelectedEditorRenderState: 0
  m_MinimumChartSize: 4
  m_AutoUVMaxDistance: 0.5
  m_AutoUVMaxAngle: 89
  m_LightmapParameters: {fileID: 0}
  m_SortingLayerID: 0
  m_SortingLayer: 0
  m_SortingOrder: 0
  m_Sprite: {fileID: 21300120, guid: c896ec8f9ab9e458284e703b0e96c024, type: 3}
  m_Color: {r: 1, g: 1, b: 1, a: 1}
  m_FlipX: 0
  m_FlipY: 0
  m_DrawMode: 0
  m_Size: {x: 1.6, y: 1.6}
  m_AdaptiveModeThreshold: 0.5
  m_SpriteTileMode: 0
  m_WasSpriteAssigned: 1
  m_MaskInteraction: 0
  m_SpriteSortPoint: 0
--- !u!114 &114706499675454988
MonoBehaviour:
  m_ObjectHideFlags: 0
  m_CorrespondingSourceObject: {fileID: 0}
  m_PrefabInstance: {fileID: 0}
  m_PrefabAsset: {fileID: 0}
  m_GameObject: {fileID: 1988486487321112}
  m_Enabled: 1
  m_EditorHideFlags: 0
  m_Script: {fileID: 11500000, guid: 7f009572b4d918346b24337ef83f88c1, type: 3}
  m_Name: 
  m_EditorClassIdentifier: 
  Rotating: 1
  RotationSpace: 1
  UpdateMode: 0
  RotationSpeed: {x: 0, y: 0, z: 300}
  Orbiting: 0
  AdditiveOrbitRotation: 0
  OrbitCenterTransform: {fileID: 0}
  OrbitCenterOffset: {x: 0, y: 0, z: 0}
  OrbitRotationAxis: {x: 0, y: 1, z: 0}
  OrbitRotationSpeed: 10
  OrbitRadius: 3
  OrbitCorrectionSpeed: 10
  DrawGizmos: 1
  OrbitPlaneColor: {r: 54, g: 169, b: 225, a: 0.02}
  OrbitLineColor: {r: 225, g: 225, b: 225, a: 0.1}
  _orbitCenter: {x: 0, y: 0, z: 0}
  _worldRotationAxis: {x: 0, y: 0, z: 0}
  _snappedPosition: {x: 0, y: 0, z: 0}
  _radius: {x: 0, y: 0, z: 0}
--- !u!61 &61899113929982292
BoxCollider2D:
  m_ObjectHideFlags: 0
  m_CorrespondingSourceObject: {fileID: 0}
  m_PrefabInstance: {fileID: 0}
  m_PrefabAsset: {fileID: 0}
  m_GameObject: {fileID: 1988486487321112}
  m_Enabled: 1
  m_Density: 1
  m_Material: {fileID: 0}
  m_IsTrigger: 1
  m_UsedByEffector: 0
  m_UsedByComposite: 0
  m_Offset: {x: 0, y: 0}
  m_SpriteTilingProperty:
    border: {x: 0, y: 0, z: 0, w: 0}
    pivot: {x: 0.5, y: 0.5}
    oldSize: {x: 1, y: 1}
    newSize: {x: 1.6, y: 1.6}
    adaptiveTilingThreshold: 0.5
    drawMode: 0
    adaptiveTiling: 0
  m_AutoTiling: 0
  serializedVersion: 2
  m_Size: {x: 1, y: 1}
  m_EdgeRadius: 0
--- !u!114 &114219179259142264
MonoBehaviour:
  m_ObjectHideFlags: 0
  m_CorrespondingSourceObject: {fileID: 0}
  m_PrefabInstance: {fileID: 0}
  m_PrefabAsset: {fileID: 0}
  m_GameObject: {fileID: 1988486487321112}
  m_Enabled: 1
  m_EditorHideFlags: 0
  m_Script: {fileID: 11500000, guid: d67c8b1f0cc0f1c46901ec3b398875b9, type: 3}
  m_Name: 
  m_EditorClassIdentifier: 
  ButtonActivatedRequirement: 2
  RequiresPlayerType: 1
  RequiresButtonActivationAbility: 0
  Activable: 1
  AutoActivation: 1
  CanOnlyActivateIfGrounded: 0
  ShouldUpdateState: 0
  OnlyOneActivationAtOnce: 1
  UnlimitedActivations: 1
  MaxNumberOfActivations: 0
  DelayBetweenUses: 0
  DisableAfterUse: 0
  UseVisualPrompt: 1
  ButtonPromptPrefab: {fileID: 0}
  ButtonPromptText: A
  ButtonPromptColor: {r: 0.4862745, g: 0.9882353, b: 0, a: 1}
  ButtonPromptTextColor: {r: 1, g: 1, b: 1, a: 1}
  AlwaysShowPrompt: 0
  ShowPromptWhenColliding: 0
  HidePromptAfterUse: 0
  PromptRelativePosition: {x: 0, y: 0, z: 0}
  ActivationFeedback: {fileID: 6401166299445358654}
  DeniedFeedback: {fileID: 0}
  OnActivation:
    m_PersistentCalls:
      m_Calls: []
    m_TypeName: UnityEngine.Events.UnityEvent, UnityEngine.CoreModule, Version=0.0.0.0,
      Culture=neutral, PublicKeyToken=null
  OnExit:
    m_PersistentCalls:
      m_Calls: []
    m_TypeName: UnityEngine.Events.UnityEvent, UnityEngine.CoreModule, Version=0.0.0.0,
      Culture=neutral, PublicKeyToken=null
  OnStay:
    m_PersistentCalls:
      m_Calls: []
    m_TypeName: UnityEngine.Events.UnityEvent, UnityEngine.CoreModule, Version=0.0.0.0,
      Culture=neutral, PublicKeyToken=null
  Destination: {fileID: 0}
  OnlyAffectsPlayer: 1
  TeleportEffect: {fileID: 133502, guid: 32b8880d7b270db479dc68ba2ef78727, type: 3}
  TeleportCamera: 0
  FadeToBlack: 0
  FadeDuration: 0
  BetweenFadeDuration: 0.5
  FadeCurve: 4
--- !u!1 &1067888431006680411
GameObject:
  m_ObjectHideFlags: 0
  m_CorrespondingSourceObject: {fileID: 0}
  m_PrefabInstance: {fileID: 0}
  m_PrefabAsset: {fileID: 0}
  serializedVersion: 6
  m_Component:
  - component: {fileID: 5398357758365771723}
  - component: {fileID: 6401166299445358654}
  - component: {fileID: 1888149184560072635}
  m_Layer: 0
  m_Name: VortexFeedback
  m_TagString: Untagged
  m_Icon: {fileID: 0}
  m_NavMeshLayer: 0
  m_StaticEditorFlags: 0
  m_IsActive: 1
--- !u!4 &5398357758365771723
Transform:
  m_ObjectHideFlags: 0
  m_CorrespondingSourceObject: {fileID: 0}
  m_PrefabInstance: {fileID: 0}
  m_PrefabAsset: {fileID: 0}
  m_GameObject: {fileID: 1067888431006680411}
  m_LocalRotation: {x: 0, y: 0, z: 0, w: 1}
  m_LocalPosition: {x: 0, y: 0, z: 0}
  m_LocalScale: {x: 1, y: 1, z: 1}
  m_Children: []
  m_Father: {fileID: 4327056396034110}
  m_RootOrder: 1
  m_LocalEulerAnglesHint: {x: 0, y: 0, z: 0}
--- !u!114 &6401166299445358654
MonoBehaviour:
  m_ObjectHideFlags: 0
  m_CorrespondingSourceObject: {fileID: 0}
  m_PrefabInstance: {fileID: 0}
  m_PrefabAsset: {fileID: 0}
  m_GameObject: {fileID: 1067888431006680411}
  m_Enabled: 1
  m_EditorHideFlags: 0
  m_Script: {fileID: 11500000, guid: 841b72de2996c5c40bfb394f3d0e0a98, type: 3}
  m_Name: 
  m_EditorClassIdentifier: 
  Feedbacks:
  - {fileID: 1888149184560072635}
  InitializationMode: 2
  DebugActive: 0
--- !u!114 &1888149184560072635
MonoBehaviour:
  m_ObjectHideFlags: 0
  m_CorrespondingSourceObject: {fileID: 0}
  m_PrefabInstance: {fileID: 0}
  m_PrefabAsset: {fileID: 0}
  m_GameObject: {fileID: 1067888431006680411}
  m_Enabled: 1
  m_EditorHideFlags: 0
  m_Script: {fileID: 11500000, guid: c27131831afa28b499cb120fc9059997, type: 3}
  m_Name: 
  m_EditorClassIdentifier: 
  Active: 1
  Label: Particles Play
  Chance: 100
  Timing:
    InitialDelay: 0
    CooldownDuration: 0
    NumberOfRepeats: 0
    RepeatForever: 0
    DelayBetweenRepeats: 1
  DebugActive: 0
  BoundParticleSystem: {fileID: 7384085189078240907}
  MoveToPosition: 0
--- !u!1001 &7384085189092540645
PrefabInstance:
  m_ObjectHideFlags: 0
  serializedVersion: 2
  m_Modification:
    m_TransformParent: {fileID: 4327056396034110}
    m_Modifications:
    - target: {fileID: 133502, guid: 32b8880d7b270db479dc68ba2ef78727, type: 3}
      propertyPath: m_Name
      value: VortexBurst
      objectReference: {fileID: 0}
    - target: {fileID: 440258, guid: 32b8880d7b270db479dc68ba2ef78727, type: 3}
      propertyPath: m_LocalPosition.x
      value: 0
      objectReference: {fileID: 0}
    - target: {fileID: 440258, guid: 32b8880d7b270db479dc68ba2ef78727, type: 3}
      propertyPath: m_LocalPosition.y
      value: 0
      objectReference: {fileID: 0}
    - target: {fileID: 440258, guid: 32b8880d7b270db479dc68ba2ef78727, type: 3}
      propertyPath: m_LocalPosition.z
      value: 0
      objectReference: {fileID: 0}
    - target: {fileID: 440258, guid: 32b8880d7b270db479dc68ba2ef78727, type: 3}
      propertyPath: m_LocalRotation.x
      value: 0
      objectReference: {fileID: 0}
    - target: {fileID: 440258, guid: 32b8880d7b270db479dc68ba2ef78727, type: 3}
      propertyPath: m_LocalRotation.y
      value: 0
      objectReference: {fileID: 0}
    - target: {fileID: 440258, guid: 32b8880d7b270db479dc68ba2ef78727, type: 3}
      propertyPath: m_LocalRotation.z
      value: 0
      objectReference: {fileID: 0}
    - target: {fileID: 440258, guid: 32b8880d7b270db479dc68ba2ef78727, type: 3}
      propertyPath: m_LocalRotation.w
      value: 1
      objectReference: {fileID: 0}
    - target: {fileID: 440258, guid: 32b8880d7b270db479dc68ba2ef78727, type: 3}
      propertyPath: m_RootOrder
      value: 0
      objectReference: {fileID: 0}
    - target: {fileID: 440258, guid: 32b8880d7b270db479dc68ba2ef78727, type: 3}
      propertyPath: m_LocalEulerAnglesHint.x
      value: 0
      objectReference: {fileID: 0}
    - target: {fileID: 440258, guid: 32b8880d7b270db479dc68ba2ef78727, type: 3}
      propertyPath: m_LocalEulerAnglesHint.y
      value: 0
      objectReference: {fileID: 0}
    - target: {fileID: 440258, guid: 32b8880d7b270db479dc68ba2ef78727, type: 3}
      propertyPath: m_LocalEulerAnglesHint.z
      value: 0
      objectReference: {fileID: 0}
    m_RemovedComponents: []
  m_SourcePrefab: {fileID: 100100000, guid: 32b8880d7b270db479dc68ba2ef78727, type: 3}
--- !u!4 &7384085189092390695 stripped
Transform:
  m_CorrespondingSourceObject: {fileID: 440258, guid: 32b8880d7b270db479dc68ba2ef78727,
    type: 3}
  m_PrefabInstance: {fileID: 7384085189092540645}
  m_PrefabAsset: {fileID: 0}
--- !u!198 &7384085189078240907 stripped
ParticleSystem:
  m_CorrespondingSourceObject: {fileID: 19844718, guid: 32b8880d7b270db479dc68ba2ef78727,
    type: 3}
  m_PrefabInstance: {fileID: 7384085189092540645}
  m_PrefabAsset: {fileID: 0}
